
{

	"backbone-users": [

		{
			
			"id": 0,
			"nombre": "Danny",
			"edad": 12,
			"email": "dan@gmail.com"

		},
			
		{
			
			"id": 1,
			"nombre": "Elver",
			"edad": 21,
			"email": "elv@gmail.com"

		},
		
		{
			
			"id": 2,
			"nombre": "Danny Again",
			"edad": 12,
			"email": "dan@gmail.com"

		},
		
		{
			
			"id": 3,
			"nombre": "Danny final",
			"edad": 12,
			"email": "dan@gmail.com"

		}


	]

}
